%YAML 1.1
%TAG !u! tag:unity3d.com,2011:
--- !u!114 &11400000
MonoBehaviour:
  m_ObjectHideFlags: 0
  m_CorrespondingSourceObject: {fileID: 0}
  m_PrefabInstance: {fileID: 0}
  m_PrefabAsset: {fileID: 0}
  m_GameObject: {fileID: 0}
  m_Enabled: 1
  m_EditorHideFlags: 0
  m_Script: {fileID: 11500000, guid: 89d3a78a5092afe459aa65c92e4f4051, type: 3}
  m_Name: Clam
  m_EditorClassIdentifier: 
  value: 1
  symbolSprite: {fileID: 21300000, guid: 782501622e175a84caff6c947b3af4c4, type: 3}
